Accessing the Scientific Literature with CrossRef
…
library(rcrossref)
cr_kenya <- cr_works(query="kenya", cursor = "*", cursor_max = 28000, .progress = "text")

This will take some time to return the results but will work. We can now extract the data.frame with the full results for Kenya. A check of the number of rows reveals the expected 27,299 rows.

Next we can inspect the dataset using View.

View(cr_kenya)

We can summarise this data using dplyr from the tidyverse packages installed earlier, to gain an overview of the data. We will start with subjects.

library(tidyverse)
cr_kenya %>% count(subject, sort = TRUE)

## # A tibble: 1,469 × 2
##                                                                        subject
##                                                                          <chr>
## 1                                                                             
## 2                                                                Medicine(all)
## 3                                 Ecology, Evolution, Behavior and Systematics
## 4                                             Parasitology,Infectious Diseases
## 5  Biochemistry, Genetics and Molecular Biology(all),Agricultural and Biologic
## 6  Public Health, Environmental and Occupational Health,Parasitology,Infectiou
## 7                                                                      General
## 8                              Geography, Planning and Development,Development
## 9                         Public Health, Environmental and Occupational Health
## 10                                     Food Animals,Animal Science and Zoology
## # ... with 1,459 more rows, and 1 more variables: n <int>

We can see that the top result is blank. We can also see that different subjects are grouped together in some of the counts. We would like to separate these out for a more accurate summary.

library(tidyverse)
cr_kenya %>% separate_rows(subject, sep = ",") %>% 
  count(subject, sort = TRUE) -> subjects  # output
subjects

## # A tibble: 315 × 2
##                                   subject     n
##                                     <chr> <int>
## 1                                         10147
## 2                                 Ecology  2052
## 3                     Infectious Diseases  2002
## 4                Behavior and Systematics  1551
## 5                               Evolution  1551
## 6                Planning and Development  1375
## 7                               Geography  1375
## 8   Environmental and Occupational Health  1364
## 9                           Public Health  1364
## 10                          Medicine(all)  1209
## # ... with 305 more rows
…
# extract first word from auth_given name
cr_kenya_authors$auth_given_nopunct <- gsub( " .*$", "", cr_kenya_authors$auth_given) %>%
  str_replace_all(., "[[:punct:]]", " ") %>%
  tolower() %>% 
  str_trim(., side = "both")

We will address author initials below.

We now have a data.frame with 95,840 rows with an author name per row. Because author names may contain varying punctuation (and typically require cleaning) we have created a field containing no punctuation. To avoid mismatches on the same name with different cases we have also converted the names to all lower case. If we were to go further with name cleaning in R we could use the stringdist package for common algorithms such as Levenshtein distance (see the native R function adist()).

Let’s take a quick look at the data.

cr_kenya_authors %>% count(auth_full_nopunct, sort = TRUE)

## # A tibble: 52,667 × 2
##     auth_full_nopunct     n
##                 <chr> <int>
## 1               na na  1222
## 2        murase kenya   209
## 3        hamano kenya   104
## 4      kusunose kenya   104
## 5          nasu kenya    96
## 6  bukusi elizabeth a    90
## 7       cohen craig r    90
## 8       shimada kenya    90
## 9     suzuki takahiko    87
## 10        honda kenya    84
## # ... with 52,657 more rows
In inspecting this data we can note two points. First, we have a double NA (not available) at the top and then results that contain the name Kenya (because we did not specify the field of search - so it may also be worth looking in the journals field). So, ideally we would filter those results out of the data as false positives (bearing in mind unlikely cases where Kenya may appear in the title and also in the author names).

For the moment we will filter on the NA and the name Kenya in the results on the given name, taking into account that in a small number of cases the name kenya could potentially be a valid result.

library(dplyr)
cr_kenya_authors %>%
  filter(auth_given_nopunct != "kenya") %>% 
filter(auth_given_nopunct != "na na") -> cr_kenya_authors # output
head(cr_kenya_authors$auth_given_nopunct)

## [1] "a"         "a"         "a"         "a"         "christian" "carles"

cr_kenya_authors %>% count(auth_full_nopunct, sort = TRUE)

## # A tibble: 51,984 × 2
##      auth_full_nopunct     n
##                  <chr> <int>
## 1   bukusi elizabeth a    90
## 2        cohen craig r    90
## 3      suzuki takahiko    87
## 4  kinoshita yoshihisa    71
## 5     breiman robert f    67
## 6     taniguchi masaki    66
## 7  terashima mitsuyasu    66
## 8     yamada hirotsugu    66
## 9     tsuchikane etsuo    64
## 10       sata masataka    61
## # ... with 51,974 more rows
…
False positives (on shared name matches or lumps) are more of a problem to address than splits. For example, in some cases a shared name may contain valid results and contain false results arising from the grouping of distinct persons with the same name together.

The easiest way to address this is to use other fields, such as author affiliations and subject areas, to match valid records. However, it is also important to bear in mind that researchers may change subject areas over time from project to project. Therefore when using subject area matches (as for this permit data) a degree of judgement is required along with accepting that data cleaning is typically a multi-step process.

The conclusion of this process involves excluding false positives at the review stage and then combining (using fuzzy logic matching in VantagePoint) variant names into single names. This reduces our dataset to a total of 89 researcher names who are also present in the scientific literature from our raw starting point of 410 unique researcher names. In other words, using a raw CrossRef dataset for Kenya we were able to identify 22% of our researcher names in publications. Let’s load that dataset.

If we inspect the cr_permits_clean dataset we will observe two main points. The first of these is that while there are 89 unique author names, there are 183 variant names. In other words, there are a large number of variant spellings of author names across this relatively small set.

library(dplyr)
cr_permits_clean %>%
  count(auth_res_combined_clean) %>% 
  arrange(desc(n))

## # A tibble: 89 × 2
##    auth_res_combined_clean     n
##                      <chr> <int>
## 1            sang rosemary    46
## 2             kanyari paul    27
## 3             ofula victor    20
## 4          cerling thure e    19
## 5          agwanda bernard    14
## 6             cords marina    14
## 7            masiga daniel    13
## 8           gakuya francis    11
## 9         gichuki nathan n    11
## 10        isbell ann lynne    11
## # ... with 79 more rows

In the data view below we can an insight into the variations of names where agwanda bernard is also agwanda bernard risky, agwanda b r, and agwanda b. These variants would increase if we had not previously regularised the case and removed punctuation.

library(dplyr)
cr_permits_clean %>%
  select(auth_res_combined_clean, auth_res_combined_vars) %>% 
  arrange(auth_res_combined_clean)

## # A tibble: 399 × 2
##    auth_res_combined_clean auth_res_combined_vars
##                      <chr>                  <chr>
## 1          agwanda bernard  agwanda bernard risky
## 2          agwanda bernard           agwanda b  r
## 3          agwanda bernard        agwanda bernard
## 4          agwanda bernard              agwanda b
## 5          agwanda bernard        agwanda bernard
## 6          agwanda bernard        agwanda bernard
## 7          agwanda bernard        agwanda bernard
## 8          agwanda bernard        agwanda bernard
## 9          agwanda bernard  agwanda bernard risky
## 10         agwanda bernard        agwanda bernard
## # ... with 389 more rows
…
