Accessing the Global Biodiversity Information Facility with rgbif
…
The value of n is the number of occurrence records in the dataset by kingdom and should not be confused with the number of species.

We can count the number of occurrence records for each species as follows. Note that we filter the taxonrank column to select species.

library(tidyverse)
kenya_gbif %>% filter(taxonrank == "SPECIES") %>% count(species) %>% arrange(desc(n))

## # A tibble: 18,131 × 2
##                  species     n
##                    <chr> <int>
## 1    Pycnonotus barbatus  5157
## 2        Colius striatus  3564
## 3  Lamprotornis superbus  3076
## 4    Bostrychia hagedash  3027
## 5     Ploceus baglafecht  2948
## 6   Alopochen aegyptiaca  2657
## 7       Motacilla aguimp  2637
## 8           Corvus albus  2529
## 9     Dicrurus adsimilis  2528
## 10        Milvus migrans  2433
## # ... with 18,121 more rows
…
Ah… so that means 59.53% of our occurrence records for Kenya are for birds. While we have nothing against birds, this means that if we map the data later on the map will be flooded with Animalia data points for birds. We won’t do anything about this for the time being except that we could exclude all records using dplyr filter to show us all records that are not (!=) birds as summarised below.

library(dplyr)
kenya_gbif %>% filter(class != "Aves") %>% count(class, sort = TRUE)

## # A tibble: 121 × 2
##                 class     n
##                 <chr> <int>
## 1             Insecta 68932
## 2            Mammalia 64124
## 3       Magnoliopsida 48989
## 4          Liliopsida 23984
## 5            Amphibia 14510
## 6            Reptilia 13383
## 7      Actinopterygii  8964
## 8          Gastropoda  4812
## 9  Protosteliomycetes  3939
## 10    Lecanoromycetes  3741
## # ... with 111 more rows

We could save this to a new table with 277,681 occurrence records as follows.

library(dplyr)
not_birds <- filter(kenya_gbif, class != "Aves")

We can also obtain an idea of who is providing taxonomic information about Kenya in the dataset through the institution code:

library(dplyr)
kenya_gbif %>% count(institutioncode, sort = TRUE)

## # A tibble: 480 × 2
##    institutioncode      n
##              <chr>  <int>
## 1              CLO 324964
## 2            NHMUK  27729
## 3        Naturalis  26439
## 4             USNM  23677
## 5             AMNH  22002
## 6             FMNH  19703
## 7             LACM  17607
## 8              MCZ  11950
## 9               MO  10279
## 10               K  10067
## # ... with 470 more rows

The interpretation of these institution codes requires further work (and an institution code may not be unique), so this is not very helpful at the moment.

Other pieces of information that we might find useful are the locality (for text mining and matching with services such as geonames using tidy text mining). Note that this data is pretty messy and would require extensive work to clean up. For that reason at present we do not propose to go further with this.

library(dplyr)
kenya_gbif %>% count(locality)

## # A tibble: 56,895 × 2
##                                                                  locality
##                                                                     <chr>
## 1                      B.E. Africa: on Tana River near base of Mt. Kenia 
## 2                                  B.E.A., Africa, hills w. of Mt. Kenia 
## 3    Mount Mbololo, Taita Hills,  Taita-Taveta District, Coastal Province
## 4                                                                  Mrika 
## 5                                                                       _
## 6                                                                       -
## 7                                                      - 64 km SW-Nairobi
## 8                                                        - 64 SW. Nairobi
## 9  - 830510 {Encyclopedia (46) - 160 - Seashells of Sri Lanka (81a) - 93}
## 10                                  - Aberdare mountains, Gatamayu forest
## # ... with 56,885 more rows, and 1 more variables: n <int>
…
One for species occurrences

Creating a Species Table

For the species table we will want to reduce the records to one record per species.

This is straightforward. We start by filtering the rows with the species taxonrank and then deduplicate using distinct(). Note that this could probably be done more directly by applying distinct without filtering first but produced lower results.

library(tidyverse)
kenya_species <- kenya_gbif %>% filter(taxonrank == "SPECIES") %>% distinct(species, 
    .keep_all = TRUE)
kenya_species

## # A tibble: 18,131 × 44
##    gbifid                           datasetkey       occurrenceid
##     <int>                                <chr>              <chr>
## 1   11010 85685a84-f762-11e1-a439-00145eb45e9a               <NA>
## 2   31186 85685a84-f762-11e1-a439-00145eb45e9a               <NA>
## 3   43892 c2e3081a-ba91-40cf-b2df-9885a24b37dc NRM:NRM-Fish:24219
## 4   44680 c2e3081a-ba91-40cf-b2df-9885a24b37dc NRM:NRM-Fish:50464
## 5   45140 c2e3081a-ba91-40cf-b2df-9885a24b37dc  NRM:NRM-Fish:9227
## 6   50852 c2e3081a-ba91-40cf-b2df-9885a24b37dc  NRM:NRM-Fish:9226
## 7   50856 c2e3081a-ba91-40cf-b2df-9885a24b37dc  NRM:NRM-Fish:9230
## 8   50861 c2e3081a-ba91-40cf-b2df-9885a24b37dc  NRM:NRM-Fish:9237
## 9   50914 c2e3081a-ba91-40cf-b2df-9885a24b37dc NRM:NRM-Fish:10967
## 10  51295 c2e3081a-ba91-40cf-b2df-9885a24b37dc NRM:NRM-Fish:24215
## # ... with 18,121 more rows, and 41 more variables: kingdom <chr>,
## #   phylum <chr>, class <chr>, order <chr>, family <chr>, genus <chr>,
## #   species <chr>, infraspecificepithet <chr>, taxonrank <chr>,
## #   scientificname <chr>, countrycode <chr>, locality <chr>,
## #   publishingorgkey <chr>, decimallatitude <dbl>, decimallongitude <dbl>,
## #   coordinateuncertaintyinmeters <dbl>, coordinateprecision <dbl>,
## #   elevation <dbl>, elevationaccuracy <dbl>, depth <dbl>,
## #   depthaccuracy <dbl>, eventdate <chr>, day <int>, month <int>,
## #   year <int>, taxonkey <int>, specieskey <int>, basisofrecord <chr>,
…
This approach has the advantage (by specifying .keep_all = TRUE) of keeping one example of the associated kingdom and other data per occurrence record. Note however that in some instances GBIF may record the same species in different genera, families or kingdoms. So, bear this in mind if you suddenly discover that a plant is recorded as an animal.

If we simply wanted a list of unique species names we could change the .keep_all to FALSE (the default).

library(tidyverse)
kenya_species_only <- kenya_gbif %>% filter(taxonrank == "SPECIES") %>% distinct(species, 
    .keep_all = FALSE)
kenya_species_only

## # A tibble: 18,131 × 1
##                   species
##                     <chr>
## 1      Amphora kenyaensis
## 2     Melosira nyassensis
## 3  Mastacembelus frenatus
## 4      Acropoma japonicum
## 5       Amphilius grandis
## 6       Bagrus orientalis
## 7      Barbus oxyrhynchus
## 8        Barbus neumayeri
## 9            Barbus mimus
## 10          Bagrus docmak
## # ... with 18,121 more rows
…
As we can see, for Kenya the highest number of species are a class of flowering plants followed by insects. While responsible for nearly 60% of the occurrence records, birds rank fifth in counts of numbers of species.

The creation of a species table creates a basis for monitoring through the use of the species names in search queries or for text mining the scientific literature and patent literature.

There are 18,131 species names in this dataset. We might also want to generate a genus names list as a shorter list for use in queries or text mining.

library(dplyr)
library(tidyr)
kenya_genus <- kenya_species %>% drop_na(genus) %>% count(genus, sort = TRUE)
kenya_genus

## # A tibble: 6,923 × 2
##           genus     n
##           <chr> <int>
## 1     Euphorbia   124
## 2    Crotalaria    89
## 3       Cyperus    80
## 4       Solanum    80
## 5         Dacus    72
## 6     Asplenium    63
## 7    Parmotrema    63
## 8  Haplochromis    61
## 9    Indigofera    60
## 10   Eragrostis    59
## # ... with 6,913 more rows
…
To address this we need to remove records with incomplete latitude or longitude. In this case we can use the very easy drop_na() function from tidyr. This will reduce our species occurrence dataset from 566020 rows to 444,228. Note that in this dataset there appear to be no cases where there are NA rows in longitude that are not also in latitude. We will however, anticipate that possibility in the code below.

library(tidyr)
kenya_occurrence <- kenya_occurrence %>% drop_na(decimallatitude) %>% drop_na(decimallongitude)
kenya_occurrence

## # A tibble: 444,228 × 44
##    gbifid                           datasetkey       occurrenceid kingdom
##     <int>                                <chr>              <chr>   <chr>
## 1  653826 aab0cf80-0c64-11dd-84d1-b8a03c50a862 LD:General:1022220   Fungi
## 2  664444 aab0cf80-0c64-11dd-84d1-b8a03c50a862 LD:General:1087200   Fungi
## 3  664565 aab0cf80-0c64-11dd-84d1-b8a03c50a862 LD:General:1093998   Fungi
## 4  673178 aab0cf80-0c64-11dd-84d1-b8a03c50a862 LD:General:1067838   Fungi
## 5  673247 aab0cf80-0c64-11dd-84d1-b8a03c50a862 LD:General:1069054   Fungi
## 6  693924 aab0cf80-0c64-11dd-84d1-b8a03c50a862 LD:General:1014486 Plantae
## 7  693932 aab0cf80-0c64-11dd-84d1-b8a03c50a862 LD:General:1014742 Plantae
## 8  710816 aab0cf80-0c64-11dd-84d1-b8a03c50a862 LD:General:1092127   Fungi
## 9  722336 aab0cf80-0c64-11dd-84d1-b8a03c50a862 LD:General:1028374 Plantae
## 10 859219 aab0cf80-0c64-11dd-84d1-b8a03c50a862 LD:General:1010326 Plantae
## # ... with 444,218 more rows, and 40 more variables: phylum <chr>,
## #   class <chr>, order <chr>, family <chr>, genus <chr>, species <chr>,
## #   infraspecificepithet <chr>, taxonrank <chr>, scientificname <chr>,
## #   countrycode <chr>, locality <chr>, publishingorgkey <chr>,
## #   decimallatitude <dbl>, decimallongitude <dbl>,
## #   coordinateuncertaintyinmeters <dbl>, coordinateprecision <dbl>,
## #   elevation <dbl>, elevationaccuracy <dbl>, depth <dbl>,
## #   depthaccuracy <dbl>, eventdate <chr>, day <int>, month <int>,
## #   year <int>, taxonkey <int>, specieskey <int>, basisofrecord <chr>,
…
