Mapping and Monitoring with Geonames
…
library(readr)
library(tidyr)
geonames_features <-  readr::read_tsv("http://download.geonames.org/export/dump/featureCodes_en.txt", col_names = FALSE) %>% dplyr::rename("feature_code" = X1, "description" = X2, "detail" = X3)

## Parsed with column specification:
## cols(
##   X1 = col_character(),
##   X2 = col_character(),
##   X3 = col_character()
## )

geonames_features

## # A tibble: 671 × 3
##    feature_code                                     description
##           <chr>                                           <chr>
## 1        A.ADM1             first-order administrative division
## 2       A.ADM1H  historical first-order administrative division
## 3        A.ADM2            second-order administrative division
## 4       A.ADM2H historical second-order administrative division
## 5        A.ADM3             third-order administrative division
## 6       A.ADM3H  historical third-order administrative division
## 7        A.ADM4            fourth-order administrative division
## 8       A.ADM4H historical fourth-order administrative division
## 9        A.ADM5             fifth-order administrative division
## 10      A.ADM5H  historical fifth-order administrative division
## # ... with 661 more rows, and 1 more variables: detail <chr>
…
The codes are presented as A.ADM1 for first-order administrative division and so on. We would like to break this up a bit to make it easier to filter for our subjects of interest. At this stage we don’t know if we will need the original combined codes and so when separating the columns we will use remove=FALSE. tidyr’s separate() function will helpfully guess the rest for us.

library(tidyr)
geonames_features <- tidyr::separate(geonames_features, feature_code, c("feature_class", "feature_subclass"), remove = FALSE, fill = "right")
geonames_features

## # A tibble: 671 × 5
##    feature_code feature_class feature_subclass
## *         <chr>         <chr>            <chr>
## 1        A.ADM1             A             ADM1
## 2       A.ADM1H             A            ADM1H
## 3        A.ADM2             A             ADM2
## 4       A.ADM2H             A            ADM2H
## 5        A.ADM3             A             ADM3
## 6       A.ADM3H             A            ADM3H
## 7        A.ADM4             A             ADM4
## 8       A.ADM4H             A            ADM4H
## 9        A.ADM5             A             ADM5
## 10      A.ADM5H             A            ADM5H
## # ... with 661 more rows, and 2 more variables: description <chr>,
## #   detail <chr>

We have one empty row at the end of the dataset that throws a warning. This proves to be a double bar for not available in the original file that is converted to null.

Filtering to identifying Lakes and Water Features

We are interested in exploring the data on lakes and water features in Kenya. These can be found in feature_class H. We can easily filter our dataset as follows

kenya_geonames_water <- dplyr::filter(geonames_features, feature_class == "H")
kenya_geonames_water

## # A tibble: 137 × 5
##    feature_code feature_class feature_subclass           description
##           <chr>         <chr>            <chr>                 <chr>
## 1        H.AIRS             H             AIRS seaplane landing area
## 2        H.ANCH             H             ANCH             anchorage
## 3         H.BAY             H              BAY                   bay
## 4        H.BAYS             H             BAYS                  bays
## 5        H.BGHT             H             BGHT              bight(s)
## 6         H.BNK             H              BNK               bank(s)
## 7        H.BNKR             H             BNKR           stream bank
## 8        H.BNKX             H             BNKX       section of bank
## 9         H.BOG             H              BOG                bog(s)
## 10       H.CAPG             H             CAPG                icecap
## # ... with 127 more rows, and 1 more variables: detail <chr>

Within feature_class H the feature codes that relate to Lakes are listed under L in the feature_code and under L in the feature_subclass.

If we take a look at the new water features table then we will see that there are quite a number of codes. Which codes we will want will depend on our purposes.

library(dplyr)
dplyr::select(kenya_geonames_water, 1,3,4)

## # A tibble: 137 × 3
##    feature_code feature_subclass           description
##           <chr>            <chr>                 <chr>
## 1        H.AIRS             AIRS seaplane landing area
## 2        H.ANCH             ANCH             anchorage
## 3         H.BAY              BAY                   bay
## 4        H.BAYS             BAYS                  bays
## 5        H.BGHT             BGHT              bight(s)
## 6         H.BNK              BNK               bank(s)
## 7        H.BNKR             BNKR           stream bank
## 8        H.BNKX             BNKX       section of bank
## 9         H.BOG              BOG                bog(s)
## 10       H.CAPG             CAPG                icecap
## # ... with 127 more rows

Having reviewed the codes we now need to decide how to filter the actual geonames table. We will start by filtering on the main code H. We are interested in lakes so lets try using the identifier for lakes. In practice we may need more than one code.

library(dplyr)
kenya_geodump %>% dplyr::filter(., feature_class == "H") %>% 
  filter(., grepl('^L', feature_code)) -> kenya_lakes # output
kenya_lakes

## # A tibble: 89 × 19
##    geonameid            name       asciiname
##        <int>           <chr>           <chr>
## 1     161340   Lake Amboseli   Lake Amboseli
## 2     178141      West Scarp      West Scarp
## 3     178374     Lake Wamoro     Lake Wamoro
## 4     178403 Bandari ya Wali Bandari ya Wali
## 5     178699     Lake Uranga     Lake Uranga
## 6     178846    Tyndall Tarn    Tyndall Tarn
## 7     179212           Tilam           Tilam
## 8     179287  Thompson Tarns  Thompson Tarns
## 9     179492   Lake Telelana   Lake Telelana
## 10    179494     Teleki Tarn     Teleki Tarn
## # ... with 79 more rows, and 16 more variables: alternatenames <chr>,
## #   latitude <dbl>, longitude <dbl>, feature_class <chr>,
## #   feature_code <chr>, country_code <chr>, cc2 <chr>, admin1_code <chr>,
## #   admin2_code <chr>, admin3_code <chr>, admin4_code <chr>,
## #   population <int>, elevation <int>, dem <int>, timezone <chr>,
## #   modification_date <date>
…
