Mapping GBIF data with Leaflet in R
…
The leaflet package will attempt to guess the name of the latitude and longitude columns in a dataset. Because GBIF calls them decimallatitude and decimallongitude, which is difficult to guess, it makes sense to rename them using the nice and easy dplyr rename() function.

library(dplyr)
kenya_occurrence <- dplyr::rename(kenya_occurrence, latitude = decimallatitude, 
    longitude = decimallongitude)

Filtering the data

In the previous section we filtered the data on the taxonrank column for species. In exploring the data we discovered that the occurrence records are heavily dominated by observations for birds as we can see below.

library(tidyverse)
kenya_gbif %>% drop_na(class) %>% count(class, sort = TRUE)

## # A tibble: 122 × 2
##                 class      n
##                 <chr>  <int>
## 1                Aves 416835
## 2             Insecta  68932
## 3            Mammalia  64124
## 4       Magnoliopsida  48989
## 5          Liliopsida  23984
## 6            Amphibia  14510
## 7            Reptilia  13383
## 8      Actinopterygii   8964
## 9          Gastropoda   4812
## 10 Protosteliomycetes   3939
## # ... with 112 more rows
…
We do not need to take any action in these cases and leaflet is behaving as expected. Let’s sample 500 records across the table and see how it goes.

library(tidyverse)
set.seed(1)
kenya_500 <- kenya_occ %>% sample_n(500)
kenya_500

## # A tibble: 500 × 44
##        gbifid                           datasetkey
##         <int>                                <chr>
## 1   183706538 09baff40-d4a3-11dc-8719-b8a03c50a862
## 2    47414991 85818aea-f762-11e1-a439-00145eb45e9a
## 3  1270009958 7e380070-f762-11e1-a439-00145eb45e9a
## 4   177626402 68efc55e-f762-11e1-a439-00145eb45e9a
## 5  1056907247 7e380070-f762-11e1-a439-00145eb45e9a
## 6  1052778786 e6c97f6e-e952-11e2-961f-00145eb45e9a
## 7   142746983 b276cb50-d3ea-11dc-ab69-b8a03c50a862
## 8  1230338192 1aaec653-c71c-4695-9b6e-0e26214dd817
## 9   476568766 4bfac3ea-8763-4f4b-a71a-76a6f5f243d3
## 10  912192321 cd6e21c8-9e8a-493a-8a76-fbf7862069e5
## # ... with 490 more rows, and 42 more variables: occurrenceid <chr>,
## #   kingdom <chr>, phylum <chr>, class <chr>, order <chr>, family <chr>,
## #   genus <chr>, species <chr>, infraspecificepithet <chr>,
## #   taxonrank <chr>, scientificname <chr>, countrycode <chr>,
## #   locality <chr>, publishingorgkey <chr>, latitude <dbl>,
## #   longitude <dbl>, coordinateuncertaintyinmeters <dbl>,
## #   coordinateprecision <dbl>, elevation <dbl>, elevationaccuracy <dbl>,
## #   depth <dbl>, depthaccuracy <dbl>, eventdate <chr>, day <int>,
## #   month <int>, year <int>, taxonkey <int>, specieskey <int>,
…
